<svg viewBox="0 0 1024 576">
    <g stroke="none" stroke-width="1" fill-rule="evenodd">
        <path d="M1024,64 C1024,81.3333333 1017.66667,96.3333333 1005,109 L557,557 C544.333333,569.666667 529.333333,576 512,576 C494.666667,576 479.666667,569.666667 467,557 L19,109 C6.33333333,96.3333333 0,81.3333333 0,64 C0,46.6666667 6.33333333,31.6666667 19,19 C31.6666667,6.33333333 46.6666667,0 64,0 L960,0 C977.333333,0 992.333333,6.33333333 1005,19 C1017.66667,31.6666667 1024,46.6666667 1024,64 Z"></path>
    </g>
</svg>