<?xml version="1.0" encoding="UTF-8"?>
<svg viewBox="0 0 312 312" version="1.1" xmlns="http://www.w3.org/2000/svg" xmlns:xlink="http://www.w3.org/1999/xlink">
        <g fill-rule="nonzero">
            <circle cx="67" cy="26" r="5"></circle>
            <circle cx="47" cy="26" r="5"></circle>
            <circle cx="26" cy="26" r="5"></circle>
            <path d="M244,213 C226.908667,213 213,226.908667 213,244 C213,261.091333 226.908667,275 244,275 C261.091333,275 275,261.091333 275,244 C275,226.908667 261.091333,213 244,213 Z M244,264.666667 C232.602333,264.666667 223.333333,255.397667 223.333333,244 C223.333333,232.602333 232.602333,223.333333 244,223.333333 C255.397667,223.333333 264.666667,232.602333 264.666667,244 C264.666667,255.397667 255.397667,264.666667 244,264.666667 Z" ></path>
            <path d="M308.058374,226.8656 L295.266375,223.6832 L295.027175,223.0696 L301.807975,211.7648 C303.031738,209.721093 302.710357,207.107194 301.027975,205.4208 L283.379176,187.7824 C281.693676,186.091371 279.073188,185.765419 277.024777,186.992 L270.399978,190.9648 L270.399978,20.8 C270.399978,9.3288 261.071178,0 249.599979,0 L20.7999983,0 C9.32879922,0 0,9.3288 0,20.8 L0,249.6 C0,261.0712 9.32879922,270.4 20.7999983,270.4 L190.964784,270.4 L186.991984,277.0352 C185.768222,279.078907 186.089603,281.692806 187.771984,283.3792 L205.420783,301.0176 C207.106283,302.708629 209.726772,303.034581 211.775182,301.808 L223.079981,295.0272 L223.672781,295.2768 L226.875981,308.0688 C227.457585,310.380377 229.53636,312 231.919981,312 L256.879979,312 C259.266625,312 261.34641,310.374106 261.923978,308.0584 L265.127178,295.2664 L265.719978,295.0272 L277.024777,301.808 C279.070785,303.02909 281.684937,302.703392 283.368776,301.0176 L301.027975,283.3792 C302.710357,281.692806 303.031738,279.078907 301.807975,277.0352 L295.027175,265.7304 L295.276775,265.1168 L308.068774,261.9344 C310.384116,261.351855 312.005284,259.267496 311.999987,256.88 L311.999987,231.92 C312.004094,229.529477 310.377846,227.444104 308.058374,226.8656 Z M20.7999983,10.4 L249.599979,10.4 C255.330379,10.4 259.999978,15.0592 259.999978,20.8 L259.999978,41.6 L10.3999991,41.6 L10.3999991,20.8 C10.3999991,15.0592 15.0695987,10.4 20.7999983,10.4 Z M10.3999991,249.6 L10.3999991,52 L259.999978,52 L259.999978,177.8608 C259.10321,177.176942 258.007735,176.804481 256.879979,176.8 L231.919981,176.8 C229.533334,176.800659 227.453549,178.425894 226.875981,180.7416 L223.672781,193.5336 L223.079981,193.7728 L211.775182,186.992 C209.729174,185.77091 207.115022,186.096608 205.431183,187.7824 L187.771984,205.4208 C186.089603,207.107194 185.768222,209.721093 186.991984,211.7648 L193.772784,223.0696 L193.523184,223.6832 L180.731185,226.8656 C178.415844,227.448145 176.794675,229.532504 176.799985,231.92 L176.799985,256.88 C176.799985,258.0448 177.195185,259.1264 177.860785,260 L20.7999983,260 C15.0695987,260 10.3999991,255.3408 10.3999991,249.6 Z M301.599975,252.824 L290.097576,255.6944 C288.397907,256.118085 287.02577,257.369036 286.447176,259.0224 C285.886486,260.659557 285.233712,262.263715 284.491976,263.8272 C283.72825,265.403064 283.814365,267.258453 284.720776,268.7568 L290.794376,278.8968 L278.886377,290.7944 L268.756778,284.7208 C267.254073,283.816302 265.396655,283.730274 263.816778,284.492 C262.258604,285.229679 260.661595,285.882369 259.032778,286.4472 C257.379851,287.020551 256.128108,288.389644 255.704779,290.0872 L252.823979,301.6 L235.97598,301.6 L233.105581,290.0976 C232.685353,288.396082 231.433105,287.022522 229.777581,286.4472 C228.145239,285.882721 226.54475,285.230026 224.983181,284.492 C223.403304,283.730274 221.545886,283.816302 220.043182,284.7208 L209.913583,290.7944 L198.005584,278.8968 L204.079183,268.7568 C204.985594,267.258453 205.071709,265.403064 204.307983,263.8272 C203.566248,262.263715 202.913473,260.659557 202.352783,259.0224 C201.774189,257.369036 200.402053,256.118085 198.702383,255.6944 L187.199984,252.824 L187.199984,235.976 L198.702383,233.1056 C200.402053,232.681915 201.774189,231.430964 202.352783,229.7776 C202.924783,228.1344 203.548783,226.5328 204.307983,224.9728 C205.071709,223.396936 204.985594,221.541547 204.079183,220.0432 L198.005584,209.9032 L209.913583,198.0056 L220.043182,204.0792 C221.545886,204.983698 223.403304,205.069726 224.983181,204.308 C226.532781,203.5592 228.123981,202.9352 229.767181,202.3528 C231.420109,201.779449 232.671851,200.410356 233.095181,198.7128 L235.97598,187.2 L252.823979,187.2 L255.694379,198.7024 C256.120779,200.408 257.379179,201.7808 259.022378,202.3528 C260.675978,202.9352 262.267178,203.5592 263.816778,204.308 C265.396655,205.069726 267.254073,204.983698 268.756778,204.0792 L278.886377,198.0056 L290.794376,209.9032 L284.720776,220.0432 C283.814365,221.541547 283.72825,223.396936 284.491976,224.9728 C285.251176,226.5328 285.875176,228.1344 286.447176,229.7776 C287.02577,231.430964 288.397907,232.681915 290.097576,233.1056 L301.599975,235.976 L301.599975,252.824 L301.599975,252.824 Z" ></path>
            <path d="M112.508073,115.176274 C110.622263,113.018797 107.355402,112.804436 105.206806,114.697188 L63.7811747,151.149357 C62.650081,152.13259 62,153.561827 62,155.065361 C62,156.568895 62.650081,157.998132 63.7811747,158.981365 L105.206806,195.433534 C106.237647,196.346584 107.588091,196.808356 108.958713,196.716465 C110.329335,196.624574 111.606876,195.986613 112.508073,194.944033 C114.387606,192.780521 114.169801,189.494987 112.021322,187.601525 L75.0593028,155.065361 L112.031679,122.529197 C114.180157,120.635736 114.397963,117.350201 112.51843,115.186689 L112.508073,115.176274 Z M145.979983,103.115814 C143.193277,102.519907 140.446207,104.281287 139.807564,107.073478 L119.094749,200.807625 C118.564964,203.576628 120.323052,206.266648 123.060762,206.875958 C125.798473,207.485267 128.521079,205.792476 129.202603,203.057245 L149.915418,109.323097 C150.531975,106.516332 148.770509,103.738008 145.979983,103.115814 L145.979983,103.115814 Z M206.999969,155.065361 C207.005115,153.565125 206.362791,152.13643 205.239349,151.149357 L163.813718,114.697188 C161.663116,112.799031 158.38959,113.013524 156.502094,115.176274 C154.614597,117.339023 154.827887,120.631039 156.978489,122.529197 L193.950864,155.065361 L156.978489,187.601525 C155.587293,188.829418 154.953169,190.710424 155.314985,192.535986 C155.676801,194.361549 156.979588,195.854321 158.732599,196.451991 C160.485611,197.04966 162.422522,196.661427 163.813718,195.433534 L205.239349,158.981365 C206.362791,157.994292 207.005115,156.565597 206.999969,155.065361 L206.999969,155.065361 Z" ></path>
        </g>
</svg>