<svg viewBox="0 0 80 80" version="1.1" xmlns="http://www.w3.org/2000/svg" xmlns:xlink="http://www.w3.org/1999/xlink">
        <g id="contact" fill-rule="nonzero">
            <polygon fill="#CE2020" points="58.857 30.573 44.714 16.43 56.43 4.716 51.712 0 40 11.716 28.284 0 23.566 4.714 54.145 35.286"></polygon>
            <polygon points="63.566 44.714 75.283 56.43 80 51.712 68.284 40 80 28.284 75.286 23.57 44.714 54.145 49.427 58.857"></polygon>
            <polygon fill="#CE2020" points="21.146 49.427 35.29 63.566 23.574 75.283 28.292 80 40.003 68.284 51.719 80 56.434 75.286 25.859 44.714"></polygon>
            <polygon points="0 28.284 11.716 40 0 51.716 4.714 56.43 35.286 25.854 30.573 21.141 16.434 35.286 4.716 23.566"></polygon>
        </g>
</svg>