<?xml version="1.0" encoding="UTF-8"?>
<svg viewBox="0 0 12 21" version="1.1" xmlns="http://www.w3.org/2000/svg" xmlns:xlink="http://www.w3.org/1999/xlink">
    <g stroke="none" stroke-width="1" fill-rule="evenodd">
        <g transform="translate(0.805000, 0.499985)" fill-rule="nonzero">
            <path d="M8.51,3.32002986 L10.39,3.32002986 L10.39,0.140029864 C9.47975131,0.0453768808 8.56515569,-0.00135428242 7.65,0 C4.93,0 3.07,1.66002986 3.07,4.70002986 L3.07,7.32002986 L8.8817842e-16,7.32002986 L8.8817842e-16,10.8800299 L3.07,10.8800299 L3.07,20.0000299 L6.75,20.0000299 L6.75,10.8800299 L9.81,10.8800299 L10.27,7.32002986 L6.75,7.32002986 L6.75,5.05002986 C6.75,4.00002986 7.03,3.32002986 8.51,3.32002986 Z"></path>
        </g>
    </g>
</svg>