<?xml version="1.0" encoding="UTF-8"?>
<svg width="94px" height="100px" viewBox="0 0 94 100" version="1.1" xmlns="http://www.w3.org/2000/svg" xmlns:xlink="http://www.w3.org/1999/xlink">
    <g stroke="none" stroke-width="1" fill-rule="evenodd">
        <g transform="translate(0.000000, -0.000000)" fill-rule="nonzero">
            <path d="M0,93.75 C0,97.2017797 2.97683012,100 6.64893617,100 L86.4361702,100 C90.1082763,100 93.0851064,97.2017797 93.0851064,93.75 L93.0851064,6.25 C93.0851064,2.79822031 90.1082763,0 86.4361702,0 L6.64893617,0 C2.97683012,0 0,2.79822031 0,6.25 L0,93.75 Z M6.64893617,6.25 L86.4361702,6.25 L86.4361702,93.75 L6.64893617,93.75 L6.64893617,6.25 Z M19.9468085,57.712766 L33.2446809,57.712766 L33.2446809,84.3085106 L19.9468085,84.3085106 L19.9468085,57.712766 Z M39.893617,24.4680851 L53.1914894,24.4680851 L53.1914894,84.3085106 L39.893617,84.3085106 L39.893617,24.4680851 Z M59.8404255,37.7659574 L73.1382979,37.7659574 L73.1382979,84.3085106 L59.8404255,84.3085106 L59.8404255,37.7659574 Z"></path>
        </g>
    </g>
</svg>