<svg viewBox="0 0 80 80" version="1.1" xmlns="http://www.w3.org/2000/svg" xmlns:xlink="http://www.w3.org/1999/xlink">
    <g stroke="none" stroke-width="1" fill-rule="evenodd">
        <g fill-rule="nonzero">
            <path d="M58.333,36.667 C46.363,36.667 36.666,46.361 36.666,58.334 C36.667,70.3 46.363,80 58.333,80 C70.303,80 80,70.3 80,58.333 C80,46.359 70.303,36.667 58.333,36.667 Z M58.333,73.333 C50.046,73.333 43.333,66.618 43.333,58.333 C43.333,50.046 50.046,43.333 58.333,43.333 C66.621,43.333 73.333,50.046 73.333,58.333 C73.333,66.618 66.621,73.333 58.333,73.333 Z" fill="#CE2020"></path>
            <path d="M66.667,0 C59.305,0 53.333,5.973 53.333,13.335 C53.333,20.698 47.363,26.667 40,26.667 C32.637,26.667 26.667,20.698 26.667,13.334 C26.667,5.972 20.697,0.001 13.333,0.001 C5.972,0 0,5.97 0,13.333 C0,20.695 5.972,26.666 13.333,26.666 C20.696,26.666 26.665,32.635 26.665,39.999 C26.665,47.361 20.697,53.332 13.333,53.332 C5.969,53.332 0,59.305 0,66.667 C0,74.03 5.97,80 13.333,80 C20.696,80 26.666,74.025 26.666,66.667 C26.666,44.58 44.573,26.667 66.666,26.665 C74.029,26.665 80,20.695 80,13.332 C80,5.973 74.029,0 66.667,0 Z M13.333,20 C9.649,20 6.666,17.016 6.666,13.333 C6.666,9.648 9.649,6.666 13.333,6.666 C17.016,6.666 20,9.648 20,13.333 C20,17.016 17.017,20 13.333,20 Z M13.333,73.333 C9.649,73.333 6.666,70.345 6.666,66.667 C6.666,62.98 9.649,60 13.333,60 C17.017,60 20,62.98 20,66.667 C20,70.345 17.017,73.333 13.333,73.333 Z M66.667,20 C62.98,20 60,17.016 60,13.333 C60,9.648 62.98,6.666 66.667,6.666 C70.352,6.666 73.333,9.648 73.333,13.333 C73.333,17.016 70.352,20 66.667,20 Z"></path>
        </g>
    </g>
</svg>