<svg viewBox="0 0 64 64" version="1.1" xmlns="http://www.w3.org/2000/svg" xmlns:xlink="http://www.w3.org/1999/xlink">
    <g stroke-width="1" fill="none" fill-rule="evenodd">
        <g transform="translate(1.000000, 1.000000)">
            <g id="Group" transform="translate(17.500000, 14.000000)">
                <line class="draw" x1="0.5" y1="12" x2="0.5" y2="9" id="Path"></line>
                <line class="draw" x1="4.5" y1="12" x2="4.5" y2="4" id="Path"></line>
                <line class="draw" x1="8.5" y1="12" x2="8.5" y2="7" id="Path"></line>
                <line class="draw" x1="12.5" y1="12" x2="12.5" y2="3" id="Path"></line>
                <line class="draw" x1="16.5" y1="12" x2="16.5" y2="0" id="Path"></line>
                <line class="draw" x1="20.5" y1="12" x2="20.5" y2="4" id="Path"></line>
                <line class="draw" x1="24.5" y1="12" x2="24.5" y2="7" id="Path"></line>
                <line class="draw" x1="28.5" y1="12" x2="28.5" y2="1" id="Path"></line>
                <line class="draw" x1="32.5" y1="12" x2="32.5" y2="5" id="Path"></line>
            </g>
            <g id="Group" transform="translate(12.000000, 7.000000)">
                <rect class="draw" id="Rectangle" x="0" y="0" width="34" height="4"></rect>
                <rect class="draw" id="Rectangle" x="34" y="0" width="4" height="4"></rect>
            </g>
            <g id="Group">
                <path class="draw" d="M58,0 C60.209,0 62,1.791 62,4 L62,7 L57,7" id="Path"></path>
                <path class="draw" d="M46,58 L46,55 L0,55 L0,58 C0,60.209 1.791,62 4,62 L50,62 C47.791,62 46,60.209 46,58 Z" id="Path"></path>
                <line class="draw" x1="8" y1="55" x2="8" y2="42" id="Path"></line>
                <path class="draw" d="M54,26 L54,4 C54,2.977 54.391,1.953 55.172,1.172 C55.952,0.391 56.977,0 58,0 L12,0 C10.977,0 9.952,0.391 9.172,1.172 C8.391,1.953 8,2.977 8,4 L8,20" id="Path"></path>
                <path class="draw" d="M54,42 L54,58 C54,59.023 53.609,60.047 52.828,60.828 C52.048,61.609 51.023,62 50,62" id="Path"></path>
            </g>
            <g id="Group" transform="translate(0.000000, 23.000000)" stroke="#CE2020">
                <circle class="draw" id="Oval" cx="8" cy="8" r="8"></circle>
                <polyline class="draw" id="Path" points="46 10 46 14 50 14 50 16 54 16 54 10"></polyline>
                <polyline class="draw" id="Path" points="16 10 58 10 58 6 16 6"></polyline>
                <circle class="draw" id="Oval" cx="10" cy="8" r="2"></circle>
            </g>
            <g id="Group" transform="translate(26.000000, 36.500000)">
                <line class="draw" x1="0" y1="0.5" x2="2" y2="0.5" id="Path"></line>
                <line class="draw" x1="4" y1="0.5" x2="6" y2="0.5" id="Path"></line>
                <line class="draw" x1="8" y1="0.5" x2="10" y2="0.5" id="Path"></line>
            </g>
            <g id="Group" transform="translate(11.000000, 42.500000)">
                <line class="draw" x1="0" y1="0.5" x2="40" y2="0.5" id="Path"></line>
                <line class="draw" x1="0" y1="4.5" x2="40" y2="4.5" id="Path"></line>
                <line class="draw" x1="0" y1="8.5" x2="20" y2="8.5" id="Path"></line>
            </g>
        </g>
    </g>
</svg>