<svg viewBox="0 0 600 800" version="1.1" xmlns="http://www.w3.org/2000/svg" xmlns:xlink="http://www.w3.org/1999/xlink">
    <g stroke="none" stroke-width="1" fill-rule="evenodd">
        <g fill-rule="nonzero">
            <rect x="266.67" y="0" width="66.67" height="300"></rect>
            <rect x="133.33" y="66.67" width="66.67" height="266.67"></rect>
            <rect x="0" y="166.67" width="66.67" height="200"></rect>
            <rect x="400" y="66.67" width="66.67" height="266.67"></rect>
            <rect x="533.33" y="166.67" width="66.67" height="200"></rect>
            <rect fill="#CE2020" x="266.67" y="500" width="66.67" height="300"></rect>
            <rect fill="#CE2020" x="400" y="466.67" width="66.67" height="266.66"></rect>
            <rect fill="#CE2020" x="533.33" y="433.33" width="66.67" height="200"></rect>
            <rect fill="#CE2020" x="133.33" y="466.67" width="66.67" height="266.66"></rect>
            <rect fill="#CE2020" x="0" y="433.33" width="66.67" height="200"></rect>
        </g>
    </g>
</svg>