<?xml version="1.0" encoding="UTF-8"?>
<svg viewBox="0 0 328 328" version="1.1" xmlns="http://www.w3.org/2000/svg" xmlns:xlink="http://www.w3.org/1999/xlink">
        <g fill-rule="nonzero">
            <path d="M322.533333,82 L289.733333,82 L289.733333,5.46666667 C289.733333,2.4436 287.289733,0 284.266667,0 L5.46666667,0 C2.4436,0 0,2.4436 0,5.46666667 L0,246 C0,249.023067 2.4436,251.466667 5.46666667,251.466667 L54.6666667,251.466667 L54.6666667,287.863733 L43.1101333,296.02 C36.1893333,300.9072 34.4509333,310.2552 39.1468,317.312667 C42.1261333,321.773467 47.0789333,324.206133 52.1137333,324.206133 C53.0594667,324.206133 54.0052,324.085867 54.9454667,323.910933 C55.5686667,326.2452 57.6022667,328 60.1333333,328 L300.666667,328 C315.738267,328 328,315.738267 328,300.666667 L328,87.4666667 C328,84.4436 325.5564,82 322.533333,82 Z M10.9333333,10.9333333 L278.8,10.9333333 L278.8,43.7333333 L10.9333333,43.7333333 L10.9333333,10.9333333 Z M10.9333333,240.533333 L10.9333333,54.6666667 L278.8,54.6666667 L278.8,82 L60.1333333,82 C57.1102667,82 54.6666667,84.4436 54.6666667,87.4666667 L54.6666667,240.533333 L10.9333333,240.533333 Z M54.5573333,312.556667 C52.4581333,313.906933 49.6318667,313.327467 48.2433333,311.250133 C46.8548,309.161867 47.3686667,306.395733 49.4186667,304.958 L129.073467,248.733333 C131.123467,252.620133 133.517867,256.2828 136.180133,259.7432 L54.5573333,312.556667 Z M131.2,213.2 C131.2,177.027067 160.627067,147.6 196.8,147.6 C232.972933,147.6 262.4,177.027067 262.4,213.2 C262.4,249.372933 232.972933,278.8 196.8,278.8 C160.627067,278.8 131.2,249.372933 131.2,213.2 Z M317.066667,300.666667 C317.066667,309.708533 309.708533,317.066667 300.666667,317.066667 L67.7156,317.066667 L143.510933,268.019733 C157.303333,281.429467 176.0868,289.733333 196.8,289.733333 C239.002667,289.733333 273.333333,255.402667 273.333333,213.2 C273.333333,170.997333 239.002667,136.666667 196.8,136.666667 C154.597333,136.666667 120.266667,170.997333 120.266667,213.2 C120.266667,222.061467 121.857467,230.540267 124.64,238.466933 L65.6,280.1448 L65.6,125.733333 L317.066667,125.733333 L317.066667,300.666667 Z M317.066667,114.8 L65.6,114.8 L65.6,92.9333333 L317.066667,92.9333333 L317.066667,114.8 Z" id="Shape"></path>
            <path d="M169.900267,216.09792 L182.017192,232.362169 C183.269728,234.056019 185.366364,234.839904 187.452109,234.450702 C189.510625,234.034092 191.149813,232.46084 191.650828,230.405196 L198.229365,203.939476 L213.929632,247.398513 C214.713828,249.558309 216.761452,251 219.048692,251 C219.075921,251 219.097704,251 219.124933,251 C221.439402,250.96711 223.487026,249.46512 224.216765,247.250507 L246,181.469926 L235.674746,178 L218.83086,228.853871 L202.384517,183.339191 C201.573091,181.080724 199.454672,179.556807 196.98772,179.737704 C194.59701,179.863783 192.565723,181.54667 191.988468,183.887362 L183.868767,216.563866 L174.393059,203.85725 C173.380139,202.497785 171.8063,201.686491 170.123545,201.664564 C168.457128,201.505594 166.834277,202.399114 165.783235,203.720207 L144,231.128783 L152.506353,237.980927 L169.900267,216.09792 Z"></path>
            <rect x="22" y="22" width="11" height="11"></rect>
            <rect x="43" y="22" width="11" height="11"></rect>
            <rect x="66" y="22" width="11" height="11"></rect>
        </g>
</svg>