<svg viewBox="0 0 80 80" version="1.1" xmlns="http://www.w3.org/2000/svg" xmlns:xlink="http://www.w3.org/1999/xlink">
        <g transform="translate(0.000000, -0.000000)" fill-rule="nonzero">
            <path d="M45.295971,19.3452724 C47.954971,21.6472724 50.618971,24.1212724 53.252971,26.7512724 C55.890971,29.3882724 58.362971,32.0512724 60.666971,34.7152724 L56.403971,39.9992724 C54.020971,37.1892724 51.406971,34.3342724 48.536971,31.4652724 C45.731971,28.6592724 42.865971,26.0412724 39.993971,23.6002724 L45.295971,19.3452724 Z" fill="#CE2020"></path>
            <path d="M77.731971,2.26727237 C71.953971,-3.51472763 56.501971,2.13027237 40.000971,15.0142724 L34.713971,19.3332724 C32.049971,21.6392724 29.380971,24.1122724 26.743971,26.7502724 C24.113971,29.3832724 21.638971,32.0472724 19.340971,34.7082724 L15.008971,40.0002724 C2.13397097,56.5032724 -3.51502903,71.9552724 2.26797097,77.7332724 C8.04597097,83.5142724 23.501971,77.8672724 40.001971,64.9862724 L45.290971,60.6652724 C47.950971,58.3612724 50.617971,55.8892724 53.250971,53.2542724 C55.885971,50.6202724 58.357971,47.9572724 60.661971,45.2952724 L64.985971,40.0002724 C77.868971,23.4982724 83.515971,8.04627237 77.731971,2.26727237 Z M70.045971,19.8022724 C67.778971,24.5232724 64.572971,29.5862724 60.666971,34.7142724 L56.403971,39.9982724 C53.961971,42.8652724 51.342971,45.7302724 48.534971,48.5402724 C45.669971,51.4092724 42.809971,54.0192724 40.003971,56.4012724 L34.706971,60.6622724 C23.722971,69.0092724 14.071971,73.3382724 8.78497097,73.3382724 C7.56397097,73.3382724 7.04297097,73.0822724 6.98097097,73.0222724 C6.64597097,72.6862724 5.77497097,68.9022724 9.95697097,60.1992724 C12.222971,55.4792724 15.425971,50.4172724 19.331971,45.2892724 L23.596971,40.0092724 C26.034971,37.1372724 28.648971,34.2772724 31.455971,31.4692724 C34.327971,28.6012724 37.185971,25.9842724 39.992971,23.6002724 L45.294971,19.3462724 C56.275971,10.9942724 65.925971,6.66427237 71.213971,6.66427237 C72.436971,6.66427237 72.952971,6.91827237 73.018971,6.98327237 C73.354971,7.31727237 74.224971,11.1002724 70.045971,19.8022724 Z"></path>
            <path d="M34.706971,60.6622724 C32.042971,58.3592724 29.378971,55.8912724 26.748971,53.2552724 C24.110971,50.6182724 21.637971,47.9512724 19.331971,45.2882724 L23.596971,40.0082724 C25.980971,42.8132724 28.594971,45.6732724 31.462971,48.5402724 C34.269971,51.3482724 37.135971,53.9652724 40.002971,56.4012724 L34.706971,60.6622724 Z M64.985971,40.0002724 C77.866971,56.5002724 83.514971,71.9522724 77.731971,77.7332724 C71.954971,83.5142724 56.501971,77.8672724 40.000971,64.9862724 L45.289971,60.6652724 C50.417971,64.5702724 55.479971,67.7762724 60.197971,70.0442724 C68.899971,74.2252724 72.682971,73.3532724 73.018971,73.0172724 C73.080971,72.9542724 73.336971,72.4362724 73.336971,71.2162724 C73.336971,65.9252724 69.006971,56.2792724 60.659971,45.2952724 L64.985971,40.0002724 Z M19.339971,34.7082724 C10.992971,23.7232724 6.66197097,14.0722724 6.66197097,8.78627237 C6.66197097,7.56827237 6.91697097,7.04727237 6.97997097,6.98227237 C7.31197097,6.65027237 11.096971,5.77627237 19.799971,9.95827237 C24.521971,12.2242724 29.580971,15.4312724 34.712971,19.3332724 L39.999971,15.0142724 C23.494971,2.13027237 8.04297097,-3.51172763 2.26797097,2.26727237 C-3.51502903,8.04927237 2.12997097,23.4982724 15.008971,40.0002724 L19.339971,34.7082724 Z" fill="#CE2020"></path>
        </g>
</svg>