<?xml version="1.0" encoding="UTF-8"?>
<svg viewBox="0 0 22 17" version="1.1" xmlns="http://www.w3.org/2000/svg" xmlns:xlink="http://www.w3.org/1999/xlink">
    <g stroke="none" stroke-width="1" fill-rule="evenodd">
        <g transform="translate(-0.006943, 0.765610)" fill-rule="nonzero">
            <path d="M22.0088159,5.4516833 C22.0582672,4.02033651 21.7452457,2.59970037 21.0988159,1.3216833 C20.6602214,0.797281819 20.0515333,0.443393412 19.3788159,0.321683303 C16.5963375,0.0692085638 13.8023473,-0.034272554 11.0088159,0.011683303 C8.22546223,-0.0363583806 5.44152421,0.0637832747 2.66881591,0.311683303 C2.12063573,0.411399864 1.61333404,0.668525376 1.20881591,1.0516833 C0.308815913,1.8816833 0.208815913,3.3016833 0.108815913,4.5016833 C-0.0362719711,6.6592469 -0.0362719711,8.8241197 0.108815913,10.9816833 C0.137746083,11.6570891 0.238309813,12.3275139 0.408815913,12.9816833 C0.529391023,13.4867492 0.773338813,13.9540295 1.11881591,14.3416833 C1.52608389,14.7451393 2.04520028,15.0168915 2.60881591,15.1216833 C4.76473186,15.387802 6.93703339,15.4980881 9.10881591,15.4516833 C12.6088159,15.5016833 15.6788159,15.4516833 19.3088159,15.1716833 C19.8862715,15.0733291 20.4200068,14.8012287 20.8388159,14.3916833 C21.1187765,14.1115999 21.3278958,13.7687814 21.4488159,13.3916833 C21.8064442,12.2943006 21.9820982,11.1457936 21.9688159,9.9916833 C22.0088159,9.4316833 22.0088159,6.0516833 22.0088159,5.4516833 Z M8.74881591,10.5916833 L8.74881591,4.4016833 L14.6688159,7.5116833 C13.0088159,8.4316833 10.8188159,9.4716833 8.74881591,10.5916833 Z"></path>
        </g>
    </g>
</svg>